8       6
    -0.5    -0.5    0.5
    -0.5    0.5     0.5
    0.5     0.5     0.5
    0.5     -0.5    0.5
    -0.5    -0.5    -0.5
    -0.5    0.5     -0.5
    0.5     0.5     -0.5
    0.5     -0.5    -0.5
    4       1    2    3    4
    4       5    6    2    1
    4       3    2    6    7
    4       3    7    8    4
    4       1    4    8    5
    4       8    7    6    5